SYS 6018: Tutorial on Association Analysis
…
#finding all frequent itemsets >= support threshold
s = 0.01
min = 1
max = 2
freq_items1 = apriori(trans_class, #run apriori function to find frequent items
               parameter = list(support = s, minlen = min, maxlen = max, target="frequent"))

apriori_output(freq_items1) %>% 
  arrange(-support) #order by support (largest to smallest)

## # A tibble: 69 x 4
##    items              support transIdenticalToItemsets count
##    <chr>                <dbl>                    <dbl> <int>
##  1 {whole milk}        0.158                   0.0144   2363
##  2 {other vegetables}  0.122                   0.0100   1827
##  3 {rolls/buns}        0.110                   0.00916  1646
##  4 {soda}              0.0971                  0.00849  1453
##  5 {yogurt}            0.0859                  0.00668  1285
##  6 {root vegetables}   0.0696                  0.00648  1041
##  7 {tropical fruit}    0.0678                  0.00581  1014
##  8 {bottled water}     0.0607                  0.00434   908
##  9 {sausage}           0.0603                  0.00521   903
## 10 {citrus fruit}      0.0531                  0.00401   795
## # â€¦ with 59 more rows
…
apriori_output(freq_items1) %>% 
  arrange(-support) #order by support (largest to smallest)

## # A tibble: 69 x 4
##    items              support transIdenticalToItemsets count
##    <chr>                <dbl>                    <dbl> <int>
##  1 {whole milk}        0.158                   0.0144   2363
##  2 {other vegetables}  0.122                   0.0100   1827
##  3 {rolls/buns}        0.110                   0.00916  1646
##  4 {soda}              0.0971                  0.00849  1453
##  5 {yogurt}            0.0859                  0.00668  1285
##  6 {root vegetables}   0.0696                  0.00648  1041
##  7 {tropical fruit}    0.0678                  0.00581  1014
##  8 {bottled water}     0.0607                  0.00434   908
##  9 {sausage}           0.0603                  0.00521   903
## 10 {citrus fruit}      0.0531                  0.00401   795
## # â€¦ with 59 more rows

#adding lift as an interest measure
apriori_output(freq_items1) %>% 
  mutate(lift = interestMeasure(freq_items1, measure="lift", trans_class)) %>% 
  arrange(lift) #order by lift (smallest to largest)

## # A tibble: 69 x 5
##    items                         support transIdenticalToItemsets count  lift
##    <chr>                           <dbl>                    <dbl> <int> <dbl>
##  1 {soda,whole milk}              0.0116                 0.00394    174 0.758
##  2 {other vegetables,whole milk}  0.0148                 0.00662    222 0.769
##  3 {other vegetables,rolls/buns}  0.0106                 0.00361    158 0.786
##  4 {rolls/buns,whole milk}        0.0140                 0.00408    209 0.804
##  5 {whole milk,yogurt}            0.0112                 0.00301    167 0.823
##  6 {red/blush wine}               0.0105                 0.000601   157 1    
##  7 {herbs}                        0.0106                 0.000936   158 1    
##  8 {specialty bar}                0.0140                 0.000802   209 1    
##  9 {sliced cheese}                0.0140                 0.000869   210 1    
## 10 {oil}                          0.0149                 0.00120    223 1    
## # â€¦ with 59 more rows
…
